{ 
    "type": "minecraft:crafting_shapeless",

    "ingredients": 
    [

    {
      "item": "spelunkcraft:bomb_bag"
    },
	
	{
      "item": "spelunkcraft:bomb_bag"
    },
	
	{
      "item": "spelunkcraft:bomb_bag"
    },
	
	{
      "item": "spelunkcraft:bomb_bag"
    }
    
    ],

    "result": 
    {
        "item": "spelunkcraft:bomb_box",
        "count": 1
    }
}