{
    "type": "minecraft:crafting_shaped",
    
    "pattern":
    [
        "   ",
        " W ",
        " W "
    ],
    
    "key":
    {
        "W":
        {
            "item": "minecraft:web"
        }
    },
    
    "result":
    {
        "item": "spelunkcraft:web_shot",
        "count": 2
    }
}