{
    "parent": "block/upper_slab",
    "textures":
    {
        "bottom": "minecraft:blocks/diamond_block",
        "top": "minecraft:blocks/diamond_block",
        "side": "minecraft:blocks/diamond_block"
    }
}