{
    "parent": "block/slab",
    "textures": {
        "bottom": "spelunkcraft:blocks/decor/blockgold",
        "top": "spelunkcraft:blocks/decor/blockgold",
        "side": "spelunkcraft:blocks/decor/blockgold"
    }
}