{ 
    "type": "minecraft:crafting_shapeless",

    "ingredients": 
    [

    {
      "item": "spelunkcraft:bomb"
    },
    
    {
      "item": "spelunkcraft:bomb_paste",
      "data": 32767
    }
    
    ],

    "result": 
    {
        "item": "spelunkcraft:sticky_bomb",
        "count": 1
    }
}