{ 
    "type": "minecraft:crafting_shapeless",

    "ingredients": 
    [

    {
      "item": "spelunkcraft:golden_idol"
    }
    
    ],

    "result": 
    {
        "item": "minecraft:gold_ingot",
        "count": 10
    }
}