{
	"type": "minecraft:crafting_shapeless",

	"ingredients": [

		{
			"item": "spelunkcraft:large_nugget"
		},

		{
			"item": "spelunkcraft:large_nugget"
		},

		{
			"item": "spelunkcraft:large_nugget"
		}

	],

	"result": {
		"item": "minecraft:gold_ingot",
		"count": 1
	}
}