{
    "type": "minecraft:crafting_shaped",
    
    "pattern":
    [
        "SSS",
        "SSS",
        "SSS"
    ],
    
    "key":
    {
        "S":
        {
            "item": "spelunkcraft:large_sapphire"
        }
    },
    
    "result":
    {
        "item": "spelunkcraft:blocksapphire",
        "count": 1
    }
}