{
    "variants": 
    {
        "facing=up": 
        { 
            "model": "spelunkcraft:utility/bomb_box" 
        },
    
        "facing=south": 
        { 
            "model": "spelunkcraft:utility/bomb_box" 
        },
    
        "facing=east": 
        { 
            "model": "spelunkcraft:utility/bomb_box","y":270 
        },
    
        "facing=west": 
        { 
            "model": "spelunkcraft:utility/bomb_box","y":90 
        },
    
        "facing=north": 
        { 
            "model": "spelunkcraft:utility/bomb_box","y":180 
        }
    }
}