{
    "type": "minecraft:crafting_shaped",
    
    "pattern":
    [
        "GG ",
        "GS ",
        " S "
    ],
    
    "key":
    {
        "S":
        {
            "item": "minecraft:stick"
        },
		"G":
		{
		    "item": "minecraft:emerald"
		}
    },
    
    "result":
    {
        "item": "spelunkcraft:emerald_axe",
        "count": 1
    }
}