{
    "type": "minecraft:crafting_shaped",
    
    "pattern":
    [
        "GGG",
        " S ",
        " S "
    ],
    
    "key":
    {
        "S":
        {
            "item": "minecraft:stick"
        },
		"G":
		{
		    "item": "spelunkcraft:large_ruby"
		}
    },
    
    "result":
    {
        "item": "spelunkcraft:ruby_pickaxe",
        "count": 1
    }
}