{
    "type": "minecraft:crafting_shaped",
    
    "pattern":
    [
        "RR ",
        " S ",
        " S "
    ],
    
    "key":
    {
        "R":
        {
            "item": "spelunkcraft:large_ruby"
        },
		
		"S":
        {
            "item": "minecraft:stick"
        }
    },
    
    "result":
    {
        "item": "spelunkcraft:ruby_hoe"
    }
}