{
    "parent": "block/orientable",
    "textures": {
        "top": "spelunkcraft:blocks/traps/arrowtrap_top",
        "down": "spelunkcraft:blocks/traps/arrowtrap_top",
"north": "spelunkcraft:blocks/traps/arrowtrap_middle",
"front": "spelunkcraft:blocks/traps/arrowtrap_middle",
"east": "spelunkcraft:blocks/traps/arrowtrap_side",
	"south": "spelunkcraft:blocks/traps/arrowtrap_top",
  "west": "spelunkcraft:blocks/traps/arrowtrap_sidereverse"
    }
}